Sender: LSF System <lsfadmin@eu-lo-s4-020>
Subject: Job 189729618: <tf_gpu> in cluster <euler> Exited

Job <tf_gpu> was submitted from host <eu-login-10> by user <jarunanp> in cluster <euler> at Thu Oct 28 13:49:30 2021
Job was executed on host(s) <4*eu-lo-s4-020>, in queue <gpu.4h>, as user <jarunanp> in cluster <euler> at Thu Oct 28 14:53:37 2021
</cluster/home/jarunanp> was used as the home directory.
</cluster/project/sis/cdss/jarunanp/21_06_wiki_tutorials/hpc-examples/tensorflow/tf_gpu> was used as the working directory.
Started at Thu Oct 28 14:53:37 2021
Terminated at Thu Oct 28 14:58:13 2021
Results reported at Thu Oct 28 14:58:13 2021

Your job looked like:

------------------------------------------------------------
# LSBATCH: User input
#!/usr/bin/bash
#BSUB -n 4
#BSUB -R "rusage[ngpus_excl_p=2]"
#BSUB -W 01:00
#BSUB -J tf_gpu

source /cluster/apps/local/env2lmod.sh
module load gcc/6.3.0 python_gpu/3.8.5
python -c "import tensorflow as tf; print(tf.__version__)"
python train_mnist_gpu.py

------------------------------------------------------------

Exited with exit code 1.

Resource usage summary:

    CPU time :                                   17.16 sec.
    Max Memory :                                 237 MB
    Average Memory :                             186.70 MB
    Total Requested Memory :                     4096.00 MB
    Delta Memory :                               3859.00 MB
    Max Swap :                                   -
    Max Processes :                              4
    Max Threads :                                5
    Run time :                                   298 sec.
    Turnaround time :                            4123 sec.

The output (if any) follows:

Current modulesystem is already LMOD modules, nothing to change for env2lmod

The following have been reloaded with a version change:
  1) gcc/4.8.5 => gcc/6.3.0

2021-10-28 14:53:54.071443: I tensorflow/stream_executor/platform/default/dso_loader.cc:49] Successfully opened dynamic library libcudart.so.11.0
2.4.0
2021-10-28 14:54:40.232164: I tensorflow/stream_executor/platform/default/dso_loader.cc:49] Successfully opened dynamic library libcudart.so.11.0
2021-10-28 14:55:14.209817: W tensorflow/core/platform/cloud/google_auth_provider.cc:184] All attempts to get a Google authentication bearer token failed, returning an empty token. Retrieving token from files failed with "Not found: Could not locate the credentials file.". Retrieving token from GCE failed with "Failed precondition: Error executing an HTTP request: libcurl code 6 meaning 'Couldn't resolve host name', error details: Couldn't resolve host 'metadata'".
Dl Completed...: 0 url [00:00, ? url/s]
Dl Size...: 0 MiB [00:00, ? MiB/s][A

Extraction completed...: 0 file [00:00, ? file/s][A[ADl Completed...:   0%|          | 0/1 [00:00<?, ? url/s]
Dl Size...: 0 MiB [00:00, ? MiB/s][A

Extraction completed...: 0 file [00:00, ? file/s][A[ADl Completed...:   0%|          | 0/2 [00:00<?, ? url/s]
Dl Size...: 0 MiB [00:00, ? MiB/s][A

Extraction completed...: 0 file [00:00, ? file/s][A[ADl Completed...:   0%|          | 0/3 [00:00<?, ? url/s]
Dl Size...: 0 MiB [00:00, ? MiB/s][A

Extraction completed...: 0 file [00:00, ? file/s][A[ADl Completed...:   0%|          | 0/4 [00:00<?, ? url/s]
Dl Size...: 0 MiB [00:00, ? MiB/s][A

Extraction completed...: 0 file [00:00, ? file/s][A[AExtraction completed...: 0 file [00:00, ? file/s]
Dl Size...: 0 MiB [00:00, ? MiB/s]
Dl Completed...:   0%|          | 0/4 [00:00<?, ? url/s]
[1mDownloading and preparing dataset Unknown size (download: Unknown size, generated: Unknown size, total: Unknown size) to /cluster/home/jarunanp/tensorflow_datasets/mnist/3.0.1...[0m
Traceback (most recent call last):
  File "/cluster/apps/nss/gcc-6.3.0/python/3.8.5/x86_64/lib64/python3.8/site-packages/urllib3/connection.py", line 169, in _new_conn
    conn = connection.create_connection(
  File "/cluster/apps/nss/gcc-6.3.0/python/3.8.5/x86_64/lib64/python3.8/site-packages/urllib3/util/connection.py", line 96, in create_connection
    raise err
  File "/cluster/apps/nss/gcc-6.3.0/python/3.8.5/x86_64/lib64/python3.8/site-packages/urllib3/util/connection.py", line 86, in create_connection
    sock.connect(sa)
OSError: [Errno 101] Network is unreachable

During handling of the above exception, another exception occurred:

Traceback (most recent call last):
  File "/cluster/apps/nss/gcc-6.3.0/python/3.8.5/x86_64/lib64/python3.8/site-packages/urllib3/connectionpool.py", line 699, in urlopen
    httplib_response = self._make_request(
  File "/cluster/apps/nss/gcc-6.3.0/python/3.8.5/x86_64/lib64/python3.8/site-packages/urllib3/connectionpool.py", line 382, in _make_request
    self._validate_conn(conn)
  File "/cluster/apps/nss/gcc-6.3.0/python/3.8.5/x86_64/lib64/python3.8/site-packages/urllib3/connectionpool.py", line 1010, in _validate_conn
    conn.connect()
  File "/cluster/apps/nss/gcc-6.3.0/python/3.8.5/x86_64/lib64/python3.8/site-packages/urllib3/connection.py", line 353, in connect
    conn = self._new_conn()
  File "/cluster/apps/nss/gcc-6.3.0/python/3.8.5/x86_64/lib64/python3.8/site-packages/urllib3/connection.py", line 181, in _new_conn
    raise NewConnectionError(
urllib3.exceptions.NewConnectionError: <urllib3.connection.HTTPSConnection object at 0x2acd495140a0>: Failed to establish a new connection: [Errno 101] Network is unreachable

During handling of the above exception, another exception occurred:

Traceback (most recent call last):
  File "/cluster/apps/nss/gcc-6.3.0/python/3.8.5/x86_64/lib64/python3.8/site-packages/requests/adapters.py", line 439, in send
    resp = conn.urlopen(
  File "/cluster/apps/nss/gcc-6.3.0/python/3.8.5/x86_64/lib64/python3.8/site-packages/urllib3/connectionpool.py", line 755, in urlopen
    retries = retries.increment(
  File "/cluster/apps/nss/gcc-6.3.0/python/3.8.5/x86_64/lib64/python3.8/site-packages/urllib3/util/retry.py", line 574, in increment
    raise MaxRetryError(_pool, url, error or ResponseError(cause))
urllib3.exceptions.MaxRetryError: HTTPSConnectionPool(host='storage.googleapis.com', port=443): Max retries exceeded with url: /cvdf-datasets/mnist/t10k-images-idx3-ubyte.gz (Caused by NewConnectionError('<urllib3.connection.HTTPSConnection object at 0x2acd495140a0>: Failed to establish a new connection: [Errno 101] Network is unreachable'))

During handling of the above exception, another exception occurred:

Traceback (most recent call last):
  File "train_mnist_gpu.py", line 7, in <module>
    datasets, info = tfds.load(name='mnist', with_info=True, as_supervised=True)
  File "/cluster/home/jarunanp/.local/lib/python3.8/site-packages/tensorflow_datasets/core/load.py", line 328, in load
    dbuilder.download_and_prepare(**download_and_prepare_kwargs)
  File "/cluster/home/jarunanp/.local/lib/python3.8/site-packages/tensorflow_datasets/core/dataset_builder.py", line 444, in download_and_prepare
    self._download_and_prepare(
  File "/cluster/home/jarunanp/.local/lib/python3.8/site-packages/tensorflow_datasets/core/dataset_builder.py", line 1147, in _download_and_prepare
    split_generators = self._split_generators(  # pylint: disable=unexpected-keyword-arg
  File "/cluster/home/jarunanp/.local/lib/python3.8/site-packages/tensorflow_datasets/image_classification/mnist.py", line 118, in _split_generators
    mnist_files = dl_manager.download_and_extract(
  File "/cluster/home/jarunanp/.local/lib/python3.8/site-packages/tensorflow_datasets/core/download/download_manager.py", line 637, in download_and_extract
    return _map_promise(self._download_extract, url_or_urls)
  File "/cluster/home/jarunanp/.local/lib/python3.8/site-packages/tensorflow_datasets/core/download/download_manager.py", line 777, in _map_promise
    res = tf.nest.map_structure(lambda p: p.get(), all_promises)  # Wait promises
  File "/cluster/apps/nss/gcc-6.3.0/python/3.8.5/x86_64/lib64/python3.8/site-packages/tensorflow/python/util/nest.py", line 659, in map_structure
    structure[0], [func(*x) for x in entries],
  File "/cluster/apps/nss/gcc-6.3.0/python/3.8.5/x86_64/lib64/python3.8/site-packages/tensorflow/python/util/nest.py", line 659, in <listcomp>
    structure[0], [func(*x) for x in entries],
  File "/cluster/home/jarunanp/.local/lib/python3.8/site-packages/tensorflow_datasets/core/download/download_manager.py", line 777, in <lambda>
    res = tf.nest.map_structure(lambda p: p.get(), all_promises)  # Wait promises
  File "/cluster/home/jarunanp/.local/lib/python3.8/site-packages/promise/promise.py", line 512, in get
    return self._target_settled_value(_raise=True)
  File "/cluster/home/jarunanp/.local/lib/python3.8/site-packages/promise/promise.py", line 516, in _target_settled_value
    return self._target()._settled_value(_raise)
  File "/cluster/home/jarunanp/.local/lib/python3.8/site-packages/promise/promise.py", line 226, in _settled_value
    reraise(type(raise_val), raise_val, self._traceback)
  File "/cluster/apps/nss/gcc-6.3.0/python/3.8.5/x86_64/lib64/python3.8/site-packages/six.py", line 703, in reraise
    raise value
  File "/cluster/home/jarunanp/.local/lib/python3.8/site-packages/promise/promise.py", line 844, in handle_future_result
    resolve(future.result())
  File "/cluster/apps/nss/gcc-6.3.0/python/3.8.5/x86_64/lib64/python3.8/concurrent/futures/_base.py", line 432, in result
    return self.__get_result()
  File "/cluster/apps/nss/gcc-6.3.0/python/3.8.5/x86_64/lib64/python3.8/concurrent/futures/_base.py", line 388, in __get_result
    raise self._exception
  File "/cluster/apps/nss/gcc-6.3.0/python/3.8.5/x86_64/lib64/python3.8/concurrent/futures/thread.py", line 57, in run
    result = self.fn(*self.args, **self.kwargs)
  File "/cluster/home/jarunanp/.local/lib/python3.8/site-packages/tensorflow_datasets/core/download/downloader.py", line 206, in _sync_download
    with _open_url(url, verify=verify) as (response, iter_content):
  File "/cluster/apps/nss/gcc-6.3.0/python/3.8.5/x86_64/lib64/python3.8/contextlib.py", line 113, in __enter__
    return next(self.gen)
  File "/cluster/home/jarunanp/.local/lib/python3.8/site-packages/tensorflow_datasets/core/download/downloader.py", line 267, in _open_with_requests
    with session.get(url, stream=True, **kwargs) as response:
  File "/cluster/apps/nss/gcc-6.3.0/python/3.8.5/x86_64/lib64/python3.8/site-packages/requests/sessions.py", line 555, in get
    return self.request('GET', url, **kwargs)
  File "/cluster/apps/nss/gcc-6.3.0/python/3.8.5/x86_64/lib64/python3.8/site-packages/requests/sessions.py", line 542, in request
    resp = self.send(prep, **send_kwargs)
  File "/cluster/apps/nss/gcc-6.3.0/python/3.8.5/x86_64/lib64/python3.8/site-packages/requests/sessions.py", line 655, in send
    r = adapter.send(request, **kwargs)
  File "/cluster/apps/nss/gcc-6.3.0/python/3.8.5/x86_64/lib64/python3.8/site-packages/requests/adapters.py", line 516, in send
    raise ConnectionError(e, request=request)
requests.exceptions.ConnectionError: HTTPSConnectionPool(host='storage.googleapis.com', port=443): Max retries exceeded with url: /cvdf-datasets/mnist/t10k-images-idx3-ubyte.gz (Caused by NewConnectionError('<urllib3.connection.HTTPSConnection object at 0x2acd495140a0>: Failed to establish a new connection: [Errno 101] Network is unreachable'))
